(kicad_sch (version 20211123) (generator eeschema)

  (uuid 89727264-ef8c-40e4-8b3a-52bdf9826943)

  (paper "A4")

  (lib_symbols
    (symbol "Battery_Management:MCP73831-2-OT" (pin_names (offset 1.016)) (in_bom yes) (on_board yes)
      (property "Reference" "U" (id 0) (at -7.62 6.35 0)
        (effects (font (size 1.27 1.27)) (justify left))
      )
      (property "Value" "MCP73831-2-OT" (id 1) (at 1.27 6.35 0)
        (effects (font (size 1.27 1.27)) (justify left))
      )
      (property "Footprint" "Package_TO_SOT_SMD:SOT-23-5" (id 2) (at 1.27 -6.35 0)
        (effects (font (size 1.27 1.27) italic) (justify left) hide)
      )
      (property "Datasheet" "http://ww1.microchip.com/downloads/en/DeviceDoc/20001984g.pdf" (id 3) (at -3.81 -1.27 0)
        (effects (font (size 1.27 1.27)) hide)
      )
      (property "ki_keywords" "battery charger lithium" (id 4) (at 0 0 0)
        (effects (font (size 1.27 1.27)) hide)
      )
      (property "ki_description" "Single cell, Li-Ion/Li-Po charge management controller, 4.20V, Tri-State Status Output, in SOT23-5 package" (id 5) (at 0 0 0)
        (effects (font (size 1.27 1.27)) hide)
      )
      (property "ki_fp_filters" "SOT?23*" (id 6) (at 0 0 0)
        (effects (font (size 1.27 1.27)) hide)
      )
      (symbol "MCP73831-2-OT_0_1"
        (rectangle (start -7.62 5.08) (end 7.62 -5.08)
          (stroke (width 0.254) (type default) (color 0 0 0 0))
          (fill (type background))
        )
      )
      (symbol "MCP73831-2-OT_1_1"
        (pin output line (at 10.16 -2.54 180) (length 2.54)
          (name "STAT" (effects (font (size 1.27 1.27))))
          (number "1" (effects (font (size 1.27 1.27))))
        )
        (pin power_in line (at 0 -7.62 90) (length 2.54)
          (name "VSS" (effects (font (size 1.27 1.27))))
          (number "2" (effects (font (size 1.27 1.27))))
        )
        (pin power_out line (at 10.16 2.54 180) (length 2.54)
          (name "VBAT" (effects (font (size 1.27 1.27))))
          (number "3" (effects (font (size 1.27 1.27))))
        )
        (pin power_in line (at 0 7.62 270) (length 2.54)
          (name "VDD" (effects (font (size 1.27 1.27))))
          (number "4" (effects (font (size 1.27 1.27))))
        )
        (pin input line (at -10.16 -2.54 0) (length 2.54)
          (name "PROG" (effects (font (size 1.27 1.27))))
          (number "5" (effects (font (size 1.27 1.27))))
        )
      )
    )
    (symbol "Connector:TestPoint" (pin_numbers hide) (pin_names (offset 0.762) hide) (in_bom yes) (on_board yes)
      (property "Reference" "TP" (id 0) (at 0 6.858 0)
        (effects (font (size 1.27 1.27)))
      )
      (property "Value" "TestPoint" (id 1) (at 0 5.08 0)
        (effects (font (size 1.27 1.27)))
      )
      (property "Footprint" "" (id 2) (at 5.08 0 0)
        (effects (font (size 1.27 1.27)) hide)
      )
      (property "Datasheet" "~" (id 3) (at 5.08 0 0)
        (effects (font (size 1.27 1.27)) hide)
      )
      (property "ki_keywords" "test point tp" (id 4) (at 0 0 0)
        (effects (font (size 1.27 1.27)) hide)
      )
      (property "ki_description" "test point" (id 5) (at 0 0 0)
        (effects (font (size 1.27 1.27)) hide)
      )
      (property "ki_fp_filters" "Pin* Test*" (id 6) (at 0 0 0)
        (effects (font (size 1.27 1.27)) hide)
      )
      (symbol "TestPoint_0_1"
        (circle (center 0 3.302) (radius 0.762)
          (stroke (width 0) (type default) (color 0 0 0 0))
          (fill (type none))
        )
      )
      (symbol "TestPoint_1_1"
        (pin passive line (at 0 0 90) (length 2.54)
          (name "1" (effects (font (size 1.27 1.27))))
          (number "1" (effects (font (size 1.27 1.27))))
        )
      )
    )
    (symbol "Device:Battery_Cell" (pin_numbers hide) (pin_names (offset 0) hide) (in_bom yes) (on_board yes)
      (property "Reference" "BT" (id 0) (at 2.54 2.54 0)
        (effects (font (size 1.27 1.27)) (justify left))
      )
      (property "Value" "Battery_Cell" (id 1) (at 2.54 0 0)
        (effects (font (size 1.27 1.27)) (justify left))
      )
      (property "Footprint" "" (id 2) (at 0 1.524 90)
        (effects (font (size 1.27 1.27)) hide)
      )
      (property "Datasheet" "~" (id 3) (at 0 1.524 90)
        (effects (font (size 1.27 1.27)) hide)
      )
      (property "ki_keywords" "battery cell" (id 4) (at 0 0 0)
        (effects (font (size 1.27 1.27)) hide)
      )
      (property "ki_description" "Single-cell battery" (id 5) (at 0 0 0)
        (effects (font (size 1.27 1.27)) hide)
      )
      (symbol "Battery_Cell_0_1"
        (rectangle (start -2.286 1.778) (end 2.286 1.524)
          (stroke (width 0) (type default) (color 0 0 0 0))
          (fill (type outline))
        )
        (rectangle (start -1.5748 1.1938) (end 1.4732 0.6858)
          (stroke (width 0) (type default) (color 0 0 0 0))
          (fill (type outline))
        )
        (polyline
          (pts
            (xy 0 0.762)
            (xy 0 0)
          )
          (stroke (width 0) (type default) (color 0 0 0 0))
          (fill (type none))
        )
        (polyline
          (pts
            (xy 0 1.778)
            (xy 0 2.54)
          )
          (stroke (width 0) (type default) (color 0 0 0 0))
          (fill (type none))
        )
        (polyline
          (pts
            (xy 0.508 3.429)
            (xy 1.524 3.429)
          )
          (stroke (width 0.254) (type default) (color 0 0 0 0))
          (fill (type none))
        )
        (polyline
          (pts
            (xy 1.016 3.937)
            (xy 1.016 2.921)
          )
          (stroke (width 0.254) (type default) (color 0 0 0 0))
          (fill (type none))
        )
      )
      (symbol "Battery_Cell_1_1"
        (pin passive line (at 0 5.08 270) (length 2.54)
          (name "+" (effects (font (size 1.27 1.27))))
          (number "1" (effects (font (size 1.27 1.27))))
        )
        (pin passive line (at 0 -2.54 90) (length 2.54)
          (name "-" (effects (font (size 1.27 1.27))))
          (number "2" (effects (font (size 1.27 1.27))))
        )
      )
    )
    (symbol "Device:C_Small" (pin_numbers hide) (pin_names (offset 0.254) hide) (in_bom yes) (on_board yes)
      (property "Reference" "C" (id 0) (at 0.254 1.778 0)
        (effects (font (size 1.27 1.27)) (justify left))
      )
      (property "Value" "C_Small" (id 1) (at 0.254 -2.032 0)
        (effects (font (size 1.27 1.27)) (justify left))
      )
      (property "Footprint" "" (id 2) (at 0 0 0)
        (effects (font (size 1.27 1.27)) hide)
      )
      (property "Datasheet" "~" (id 3) (at 0 0 0)
        (effects (font (size 1.27 1.27)) hide)
      )
      (property "ki_keywords" "capacitor cap" (id 4) (at 0 0 0)
        (effects (font (size 1.27 1.27)) hide)
      )
      (property "ki_description" "Unpolarized capacitor, small symbol" (id 5) (at 0 0 0)
        (effects (font (size 1.27 1.27)) hide)
      )
      (property "ki_fp_filters" "C_*" (id 6) (at 0 0 0)
        (effects (font (size 1.27 1.27)) hide)
      )
      (symbol "C_Small_0_1"
        (polyline
          (pts
            (xy -1.524 -0.508)
            (xy 1.524 -0.508)
          )
          (stroke (width 0.3302) (type default) (color 0 0 0 0))
          (fill (type none))
        )
        (polyline
          (pts
            (xy -1.524 0.508)
            (xy 1.524 0.508)
          )
          (stroke (width 0.3048) (type default) (color 0 0 0 0))
          (fill (type none))
        )
      )
      (symbol "C_Small_1_1"
        (pin passive line (at 0 2.54 270) (length 2.032)
          (name "~" (effects (font (size 1.27 1.27))))
          (number "1" (effects (font (size 1.27 1.27))))
        )
        (pin passive line (at 0 -2.54 90) (length 2.032)
          (name "~" (effects (font (size 1.27 1.27))))
          (number "2" (effects (font (size 1.27 1.27))))
        )
      )
    )
    (symbol "Device:D_Zener" (pin_numbers hide) (pin_names (offset 1.016) hide) (in_bom yes) (on_board yes)
      (property "Reference" "D" (id 0) (at 0 2.54 0)
        (effects (font (size 1.27 1.27)))
      )
      (property "Value" "D_Zener" (id 1) (at 0 -2.54 0)
        (effects (font (size 1.27 1.27)))
      )
      (property "Footprint" "" (id 2) (at 0 0 0)
        (effects (font (size 1.27 1.27)) hide)
      )
      (property "Datasheet" "~" (id 3) (at 0 0 0)
        (effects (font (size 1.27 1.27)) hide)
      )
      (property "ki_keywords" "diode" (id 4) (at 0 0 0)
        (effects (font (size 1.27 1.27)) hide)
      )
      (property "ki_description" "Zener diode" (id 5) (at 0 0 0)
        (effects (font (size 1.27 1.27)) hide)
      )
      (property "ki_fp_filters" "TO-???* *_Diode_* *SingleDiode* D_*" (id 6) (at 0 0 0)
        (effects (font (size 1.27 1.27)) hide)
      )
      (symbol "D_Zener_0_1"
        (polyline
          (pts
            (xy 1.27 0)
            (xy -1.27 0)
          )
          (stroke (width 0) (type default) (color 0 0 0 0))
          (fill (type none))
        )
        (polyline
          (pts
            (xy -1.27 -1.27)
            (xy -1.27 1.27)
            (xy -0.762 1.27)
          )
          (stroke (width 0.254) (type default) (color 0 0 0 0))
          (fill (type none))
        )
        (polyline
          (pts
            (xy 1.27 -1.27)
            (xy 1.27 1.27)
            (xy -1.27 0)
            (xy 1.27 -1.27)
          )
          (stroke (width 0.254) (type default) (color 0 0 0 0))
          (fill (type none))
        )
      )
      (symbol "D_Zener_1_1"
        (pin passive line (at -3.81 0 0) (length 2.54)
          (name "K" (effects (font (size 1.27 1.27))))
          (number "1" (effects (font (size 1.27 1.27))))
        )
        (pin passive line (at 3.81 0 180) (length 2.54)
          (name "A" (effects (font (size 1.27 1.27))))
          (number "2" (effects (font (size 1.27 1.27))))
        )
      )
    )
    (symbol "Device:Q_PMOS_GDS" (pin_names (offset 0) hide) (in_bom yes) (on_board yes)
      (property "Reference" "Q" (id 0) (at 5.08 1.27 0)
        (effects (font (size 1.27 1.27)) (justify left))
      )
      (property "Value" "Q_PMOS_GDS" (id 1) (at 5.08 -1.27 0)
        (effects (font (size 1.27 1.27)) (justify left))
      )
      (property "Footprint" "" (id 2) (at 5.08 2.54 0)
        (effects (font (size 1.27 1.27)) hide)
      )
      (property "Datasheet" "~" (id 3) (at 0 0 0)
        (effects (font (size 1.27 1.27)) hide)
      )
      (property "ki_keywords" "transistor PMOS P-MOS P-MOSFET" (id 4) (at 0 0 0)
        (effects (font (size 1.27 1.27)) hide)
      )
      (property "ki_description" "P-MOSFET transistor, gate/drain/source" (id 5) (at 0 0 0)
        (effects (font (size 1.27 1.27)) hide)
      )
      (symbol "Q_PMOS_GDS_0_1"
        (polyline
          (pts
            (xy 0.254 0)
            (xy -2.54 0)
          )
          (stroke (width 0) (type default) (color 0 0 0 0))
          (fill (type none))
        )
        (polyline
          (pts
            (xy 0.254 1.905)
            (xy 0.254 -1.905)
          )
          (stroke (width 0.254) (type default) (color 0 0 0 0))
          (fill (type none))
        )
        (polyline
          (pts
            (xy 0.762 -1.27)
            (xy 0.762 -2.286)
          )
          (stroke (width 0.254) (type default) (color 0 0 0 0))
          (fill (type none))
        )
        (polyline
          (pts
            (xy 0.762 0.508)
            (xy 0.762 -0.508)
          )
          (stroke (width 0.254) (type default) (color 0 0 0 0))
          (fill (type none))
        )
        (polyline
          (pts
            (xy 0.762 2.286)
            (xy 0.762 1.27)
          )
          (stroke (width 0.254) (type default) (color 0 0 0 0))
          (fill (type none))
        )
        (polyline
          (pts
            (xy 2.54 2.54)
            (xy 2.54 1.778)
          )
          (stroke (width 0) (type default) (color 0 0 0 0))
          (fill (type none))
        )
        (polyline
          (pts
            (xy 2.54 -2.54)
            (xy 2.54 0)
            (xy 0.762 0)
          )
          (stroke (width 0) (type default) (color 0 0 0 0))
          (fill (type none))
        )
        (polyline
          (pts
            (xy 0.762 1.778)
            (xy 3.302 1.778)
            (xy 3.302 -1.778)
            (xy 0.762 -1.778)
          )
          (stroke (width 0) (type default) (color 0 0 0 0))
          (fill (type none))
        )
        (polyline
          (pts
            (xy 2.286 0)
            (xy 1.27 0.381)
            (xy 1.27 -0.381)
            (xy 2.286 0)
          )
          (stroke (width 0) (type default) (color 0 0 0 0))
          (fill (type outline))
        )
        (polyline
          (pts
            (xy 2.794 -0.508)
            (xy 2.921 -0.381)
            (xy 3.683 -0.381)
            (xy 3.81 -0.254)
          )
          (stroke (width 0) (type default) (color 0 0 0 0))
          (fill (type none))
        )
        (polyline
          (pts
            (xy 3.302 -0.381)
            (xy 2.921 0.254)
            (xy 3.683 0.254)
            (xy 3.302 -0.381)
          )
          (stroke (width 0) (type default) (color 0 0 0 0))
          (fill (type none))
        )
        (circle (center 1.651 0) (radius 2.794)
          (stroke (width 0.254) (type default) (color 0 0 0 0))
          (fill (type none))
        )
        (circle (center 2.54 -1.778) (radius 0.254)
          (stroke (width 0) (type default) (color 0 0 0 0))
          (fill (type outline))
        )
        (circle (center 2.54 1.778) (radius 0.254)
          (stroke (width 0) (type default) (color 0 0 0 0))
          (fill (type outline))
        )
      )
      (symbol "Q_PMOS_GDS_1_1"
        (pin input line (at -5.08 0 0) (length 2.54)
          (name "G" (effects (font (size 1.27 1.27))))
          (number "1" (effects (font (size 1.27 1.27))))
        )
        (pin passive line (at 2.54 5.08 270) (length 2.54)
          (name "D" (effects (font (size 1.27 1.27))))
          (number "2" (effects (font (size 1.27 1.27))))
        )
        (pin passive line (at 2.54 -5.08 90) (length 2.54)
          (name "S" (effects (font (size 1.27 1.27))))
          (number "3" (effects (font (size 1.27 1.27))))
        )
      )
    )
    (symbol "Device:R_Small_US" (pin_numbers hide) (pin_names (offset 0.254) hide) (in_bom yes) (on_board yes)
      (property "Reference" "R" (id 0) (at 0.762 0.508 0)
        (effects (font (size 1.27 1.27)) (justify left))
      )
      (property "Value" "R_Small_US" (id 1) (at 0.762 -1.016 0)
        (effects (font (size 1.27 1.27)) (justify left))
      )
      (property "Footprint" "" (id 2) (at 0 0 0)
        (effects (font (size 1.27 1.27)) hide)
      )
      (property "Datasheet" "~" (id 3) (at 0 0 0)
        (effects (font (size 1.27 1.27)) hide)
      )
      (property "ki_keywords" "r resistor" (id 4) (at 0 0 0)
        (effects (font (size 1.27 1.27)) hide)
      )
      (property "ki_description" "Resistor, small US symbol" (id 5) (at 0 0 0)
        (effects (font (size 1.27 1.27)) hide)
      )
      (property "ki_fp_filters" "R_*" (id 6) (at 0 0 0)
        (effects (font (size 1.27 1.27)) hide)
      )
      (symbol "R_Small_US_1_1"
        (polyline
          (pts
            (xy 0 0)
            (xy 1.016 -0.381)
            (xy 0 -0.762)
            (xy -1.016 -1.143)
            (xy 0 -1.524)
          )
          (stroke (width 0) (type default) (color 0 0 0 0))
          (fill (type none))
        )
        (polyline
          (pts
            (xy 0 1.524)
            (xy 1.016 1.143)
            (xy 0 0.762)
            (xy -1.016 0.381)
            (xy 0 0)
          )
          (stroke (width 0) (type default) (color 0 0 0 0))
          (fill (type none))
        )
        (pin passive line (at 0 2.54 270) (length 1.016)
          (name "~" (effects (font (size 1.27 1.27))))
          (number "1" (effects (font (size 1.27 1.27))))
        )
        (pin passive line (at 0 -2.54 90) (length 1.016)
          (name "~" (effects (font (size 1.27 1.27))))
          (number "2" (effects (font (size 1.27 1.27))))
        )
      )
    )
    (symbol "Regulator_Linear:LM1117-3.3" (pin_names (offset 0.254)) (in_bom yes) (on_board yes)
      (property "Reference" "U" (id 0) (at -3.81 3.175 0)
        (effects (font (size 1.27 1.27)))
      )
      (property "Value" "LM1117-3.3" (id 1) (at 0 3.175 0)
        (effects (font (size 1.27 1.27)) (justify left))
      )
      (property "Footprint" "" (id 2) (at 0 0 0)
        (effects (font (size 1.27 1.27)) hide)
      )
      (property "Datasheet" "http://www.ti.com/lit/ds/symlink/lm1117.pdf" (id 3) (at 0 0 0)
        (effects (font (size 1.27 1.27)) hide)
      )
      (property "ki_keywords" "linear regulator ldo fixed positive" (id 4) (at 0 0 0)
        (effects (font (size 1.27 1.27)) hide)
      )
      (property "ki_description" "800mA Low-Dropout Linear Regulator, 3.3V fixed output, TO-220/TO-252/TO-263/SOT-223" (id 5) (at 0 0 0)
        (effects (font (size 1.27 1.27)) hide)
      )
      (property "ki_fp_filters" "SOT?223* TO?263* TO?252* TO?220*" (id 6) (at 0 0 0)
        (effects (font (size 1.27 1.27)) hide)
      )
      (symbol "LM1117-3.3_0_1"
        (rectangle (start -5.08 -5.08) (end 5.08 1.905)
          (stroke (width 0.254) (type default) (color 0 0 0 0))
          (fill (type background))
        )
      )
      (symbol "LM1117-3.3_1_1"
        (pin power_in line (at 0 -7.62 90) (length 2.54)
          (name "GND" (effects (font (size 1.27 1.27))))
          (number "1" (effects (font (size 1.27 1.27))))
        )
        (pin power_out line (at 7.62 0 180) (length 2.54)
          (name "VO" (effects (font (size 1.27 1.27))))
          (number "2" (effects (font (size 1.27 1.27))))
        )
        (pin power_in line (at -7.62 0 0) (length 2.54)
          (name "VI" (effects (font (size 1.27 1.27))))
          (number "3" (effects (font (size 1.27 1.27))))
        )
      )
    )
    (symbol "power:+3V3" (power) (pin_names (offset 0)) (in_bom yes) (on_board yes)
      (property "Reference" "#PWR" (id 0) (at 0 -3.81 0)
        (effects (font (size 1.27 1.27)) hide)
      )
      (property "Value" "+3V3" (id 1) (at 0 3.556 0)
        (effects (font (size 1.27 1.27)))
      )
      (property "Footprint" "" (id 2) (at 0 0 0)
        (effects (font (size 1.27 1.27)) hide)
      )
      (property "Datasheet" "" (id 3) (at 0 0 0)
        (effects (font (size 1.27 1.27)) hide)
      )
      (property "ki_keywords" "power-flag" (id 4) (at 0 0 0)
        (effects (font (size 1.27 1.27)) hide)
      )
      (property "ki_description" "Power symbol creates a global label with name \"+3V3\"" (id 5) (at 0 0 0)
        (effects (font (size 1.27 1.27)) hide)
      )
      (symbol "+3V3_0_1"
        (polyline
          (pts
            (xy -0.762 1.27)
            (xy 0 2.54)
          )
          (stroke (width 0) (type default) (color 0 0 0 0))
          (fill (type none))
        )
        (polyline
          (pts
            (xy 0 0)
            (xy 0 2.54)
          )
          (stroke (width 0) (type default) (color 0 0 0 0))
          (fill (type none))
        )
        (polyline
          (pts
            (xy 0 2.54)
            (xy 0.762 1.27)
          )
          (stroke (width 0) (type default) (color 0 0 0 0))
          (fill (type none))
        )
      )
      (symbol "+3V3_1_1"
        (pin power_in line (at 0 0 90) (length 0) hide
          (name "+3V3" (effects (font (size 1.27 1.27))))
          (number "1" (effects (font (size 1.27 1.27))))
        )
      )
    )
    (symbol "power:GND" (power) (pin_names (offset 0)) (in_bom yes) (on_board yes)
      (property "Reference" "#PWR" (id 0) (at 0 -6.35 0)
        (effects (font (size 1.27 1.27)) hide)
      )
      (property "Value" "GND" (id 1) (at 0 -3.81 0)
        (effects (font (size 1.27 1.27)))
      )
      (property "Footprint" "" (id 2) (at 0 0 0)
        (effects (font (size 1.27 1.27)) hide)
      )
      (property "Datasheet" "" (id 3) (at 0 0 0)
        (effects (font (size 1.27 1.27)) hide)
      )
      (property "ki_keywords" "power-flag" (id 4) (at 0 0 0)
        (effects (font (size 1.27 1.27)) hide)
      )
      (property "ki_description" "Power symbol creates a global label with name \"GND\" , ground" (id 5) (at 0 0 0)
        (effects (font (size 1.27 1.27)) hide)
      )
      (symbol "GND_0_1"
        (polyline
          (pts
            (xy 0 0)
            (xy 0 -1.27)
            (xy 1.27 -1.27)
            (xy 0 -2.54)
            (xy -1.27 -1.27)
            (xy 0 -1.27)
          )
          (stroke (width 0) (type default) (color 0 0 0 0))
          (fill (type none))
        )
      )
      (symbol "GND_1_1"
        (pin power_in line (at 0 0 270) (length 0) hide
          (name "GND" (effects (font (size 1.27 1.27))))
          (number "1" (effects (font (size 1.27 1.27))))
        )
      )
    )
    (symbol "power:PWR_FLAG" (power) (pin_numbers hide) (pin_names (offset 0) hide) (in_bom yes) (on_board yes)
      (property "Reference" "#FLG" (id 0) (at 0 1.905 0)
        (effects (font (size 1.27 1.27)) hide)
      )
      (property "Value" "PWR_FLAG" (id 1) (at 0 3.81 0)
        (effects (font (size 1.27 1.27)))
      )
      (property "Footprint" "" (id 2) (at 0 0 0)
        (effects (font (size 1.27 1.27)) hide)
      )
      (property "Datasheet" "~" (id 3) (at 0 0 0)
        (effects (font (size 1.27 1.27)) hide)
      )
      (property "ki_keywords" "power-flag" (id 4) (at 0 0 0)
        (effects (font (size 1.27 1.27)) hide)
      )
      (property "ki_description" "Special symbol for telling ERC where power comes from" (id 5) (at 0 0 0)
        (effects (font (size 1.27 1.27)) hide)
      )
      (symbol "PWR_FLAG_0_0"
        (pin power_out line (at 0 0 90) (length 0)
          (name "pwr" (effects (font (size 1.27 1.27))))
          (number "1" (effects (font (size 1.27 1.27))))
        )
      )
      (symbol "PWR_FLAG_0_1"
        (polyline
          (pts
            (xy 0 0)
            (xy 0 1.27)
            (xy -1.016 1.905)
            (xy 0 2.54)
            (xy 1.016 1.905)
            (xy 0 1.27)
          )
          (stroke (width 0) (type default) (color 0 0 0 0))
          (fill (type none))
        )
      )
    )
    (symbol "power:VCC" (power) (pin_names (offset 0)) (in_bom yes) (on_board yes)
      (property "Reference" "#PWR" (id 0) (at 0 -3.81 0)
        (effects (font (size 1.27 1.27)) hide)
      )
      (property "Value" "VCC" (id 1) (at 0 3.81 0)
        (effects (font (size 1.27 1.27)))
      )
      (property "Footprint" "" (id 2) (at 0 0 0)
        (effects (font (size 1.27 1.27)) hide)
      )
      (property "Datasheet" "" (id 3) (at 0 0 0)
        (effects (font (size 1.27 1.27)) hide)
      )
      (property "ki_keywords" "power-flag" (id 4) (at 0 0 0)
        (effects (font (size 1.27 1.27)) hide)
      )
      (property "ki_description" "Power symbol creates a global label with name \"VCC\"" (id 5) (at 0 0 0)
        (effects (font (size 1.27 1.27)) hide)
      )
      (symbol "VCC_0_1"
        (polyline
          (pts
            (xy -0.762 1.27)
            (xy 0 2.54)
          )
          (stroke (width 0) (type default) (color 0 0 0 0))
          (fill (type none))
        )
        (polyline
          (pts
            (xy 0 0)
            (xy 0 2.54)
          )
          (stroke (width 0) (type default) (color 0 0 0 0))
          (fill (type none))
        )
        (polyline
          (pts
            (xy 0 2.54)
            (xy 0.762 1.27)
          )
          (stroke (width 0) (type default) (color 0 0 0 0))
          (fill (type none))
        )
      )
      (symbol "VCC_1_1"
        (pin power_in line (at 0 0 90) (length 0) hide
          (name "VCC" (effects (font (size 1.27 1.27))))
          (number "1" (effects (font (size 1.27 1.27))))
        )
      )
    )
  )

  (junction (at 52.324 66.294) (diameter 0) (color 0 0 0 0)
    (uuid 126ccd0e-610f-4fa4-8021-30873a398967)
  )
  (junction (at 134.747 56.515) (diameter 0) (color 0 0 0 0)
    (uuid 2574a4f3-703d-4230-a195-7bce5fe9917f)
  )
  (junction (at 119.253 41.783) (diameter 0) (color 0 0 0 0)
    (uuid 45920cd1-a483-40b5-b7e8-79d016df882a)
  )
  (junction (at 152.527 91.313) (diameter 0) (color 0 0 0 0)
    (uuid b960b425-3db8-465d-a51c-191ba88204d8)
  )
  (junction (at 114.681 91.313) (diameter 0) (color 0 0 0 0)
    (uuid c3be0d4e-2924-4778-8f0b-b85bdaf32a1a)
  )
  (junction (at 66.294 52.324) (diameter 0) (color 0 0 0 0)
    (uuid c9fca529-6fb9-4500-bb9e-e83f9cd45fbd)
  )
  (junction (at 80.264 51.689) (diameter 0) (color 0 0 0 0)
    (uuid d84d0d1e-2257-44dc-92a8-633bd89ccae3)
  )
  (junction (at 112.649 91.313) (diameter 0) (color 0 0 0 0)
    (uuid db785ff9-b611-4eb6-888b-cfbe67a2ea0c)
  )
  (junction (at 158.115 91.313) (diameter 0) (color 0 0 0 0)
    (uuid f453d422-1408-4cad-989a-eaaeedef982e)
  )

  (no_connect (at 62.484 57.404) (uuid 9be008b9-47cd-4880-9c07-5522eb0c5495))

  (wire (pts (xy 66.294 51.689) (xy 66.294 52.324))
    (stroke (width 0) (type default) (color 0 0 0 0))
    (uuid 06e1c0a4-605c-4b63-b14c-d69fcb866d1d)
  )
  (wire (pts (xy 66.929 52.324) (xy 66.929 57.404))
    (stroke (width 0) (type default) (color 0 0 0 0))
    (uuid 0cdce257-716f-4e8d-8878-9517e9dbfcfe)
  )
  (wire (pts (xy 125.857 48.895) (xy 125.857 41.783))
    (stroke (width 0) (type default) (color 0 0 0 0))
    (uuid 177c16ad-cbf7-4800-8d46-4d4c6848fdbe)
  )
  (wire (pts (xy 80.264 51.689) (xy 80.264 53.594))
    (stroke (width 0) (type default) (color 0 0 0 0))
    (uuid 1cbb102f-960e-4a2f-a685-de0dea379a9f)
  )
  (wire (pts (xy 174.371 91.313) (xy 178.943 91.313))
    (stroke (width 0) (type default) (color 0 0 0 0))
    (uuid 1cf23c13-f01a-4ab7-97a4-80201da77ce1)
  )
  (wire (pts (xy 110.109 56.515) (xy 120.777 56.515))
    (stroke (width 0) (type default) (color 0 0 0 0))
    (uuid 2295af9e-64ec-440b-840f-94c96345d387)
  )
  (wire (pts (xy 80.264 49.149) (xy 80.264 51.689))
    (stroke (width 0) (type default) (color 0 0 0 0))
    (uuid 3abbc070-c8ec-443b-af0a-da8480a602c6)
  )
  (wire (pts (xy 152.527 91.313) (xy 158.115 91.313))
    (stroke (width 0) (type default) (color 0 0 0 0))
    (uuid 3f453ad8-e331-42b0-8439-e92c97c13e5a)
  )
  (wire (pts (xy 112.649 91.313) (xy 112.649 94.615))
    (stroke (width 0) (type default) (color 0 0 0 0))
    (uuid 4a0b62cc-3611-4be8-9b53-b06e7ab60bf6)
  )
  (wire (pts (xy 39.624 64.389) (xy 39.624 68.834))
    (stroke (width 0) (type default) (color 0 0 0 0))
    (uuid 4d2b1079-29f7-4456-ab22-8211554ea90b)
  )
  (wire (pts (xy 42.164 57.404) (xy 39.624 57.404))
    (stroke (width 0) (type default) (color 0 0 0 0))
    (uuid 4e8c5d7d-0b1a-4d49-b10e-0adaa2597218)
  )
  (wire (pts (xy 62.484 52.324) (xy 66.294 52.324))
    (stroke (width 0) (type default) (color 0 0 0 0))
    (uuid 5479aeb0-420d-4d64-8fd8-d329766066a7)
  )
  (wire (pts (xy 52.324 66.294) (xy 52.324 62.484))
    (stroke (width 0) (type default) (color 0 0 0 0))
    (uuid 662203e4-8a06-4828-b199-73b838f6f757)
  )
  (wire (pts (xy 127.127 98.933) (xy 127.127 101.473))
    (stroke (width 0) (type default) (color 0 0 0 0))
    (uuid 6b1014af-3b18-4920-99d2-f06bf0babfc5)
  )
  (wire (pts (xy 116.205 41.783) (xy 119.253 41.783))
    (stroke (width 0) (type default) (color 0 0 0 0))
    (uuid 6c61a509-a062-4dde-9342-bc7aff96d88e)
  )
  (wire (pts (xy 119.253 48.133) (xy 119.253 49.657))
    (stroke (width 0) (type default) (color 0 0 0 0))
    (uuid 723f2410-3652-46ed-824c-7daf45fd63f9)
  )
  (wire (pts (xy 152.527 94.107) (xy 152.527 91.313))
    (stroke (width 0) (type default) (color 0 0 0 0))
    (uuid 7c7098b7-90fc-49ab-8ca6-e8b355725702)
  )
  (wire (pts (xy 39.624 57.404) (xy 39.624 59.309))
    (stroke (width 0) (type default) (color 0 0 0 0))
    (uuid 83389342-341d-4149-aaf9-0824346fcd8e)
  )
  (wire (pts (xy 134.747 56.515) (xy 146.177 56.515))
    (stroke (width 0) (type default) (color 0 0 0 0))
    (uuid 86018e36-36f8-49c0-a4df-bce404be1bf8)
  )
  (wire (pts (xy 114.681 91.313) (xy 119.507 91.313))
    (stroke (width 0) (type default) (color 0 0 0 0))
    (uuid 8712b5e1-5100-4da1-ad20-76c4792a11f8)
  )
  (wire (pts (xy 66.929 62.484) (xy 66.929 66.294))
    (stroke (width 0) (type default) (color 0 0 0 0))
    (uuid 88f5a0c2-cbc1-4840-9752-880eb7e2412b)
  )
  (wire (pts (xy 66.294 52.324) (xy 66.929 52.324))
    (stroke (width 0) (type default) (color 0 0 0 0))
    (uuid 8f2088eb-5b7c-41db-8296-ea50081feba2)
  )
  (wire (pts (xy 134.747 91.313) (xy 152.527 91.313))
    (stroke (width 0) (type default) (color 0 0 0 0))
    (uuid 92d38b6e-10bb-4476-90f2-2e4d27e77bb1)
  )
  (wire (pts (xy 152.527 99.187) (xy 152.527 101.219))
    (stroke (width 0) (type default) (color 0 0 0 0))
    (uuid a035d06a-59fd-4fbe-82f6-0a506f9568d5)
  )
  (wire (pts (xy 105.029 91.313) (xy 112.649 91.313))
    (stroke (width 0) (type default) (color 0 0 0 0))
    (uuid b156778f-e2ef-421d-8ded-e3bb79e6c79d)
  )
  (wire (pts (xy 80.264 66.294) (xy 80.264 61.214))
    (stroke (width 0) (type default) (color 0 0 0 0))
    (uuid bb334384-0fbe-4109-acf2-58c8b63b3189)
  )
  (wire (pts (xy 80.264 51.689) (xy 66.294 51.689))
    (stroke (width 0) (type default) (color 0 0 0 0))
    (uuid d5fdb68f-b709-4bfc-90f2-b991af0b6540)
  )
  (wire (pts (xy 119.253 41.783) (xy 119.253 43.053))
    (stroke (width 0) (type default) (color 0 0 0 0))
    (uuid d94447f3-8959-48a5-a128-14cd1a440e04)
  )
  (wire (pts (xy 112.649 99.695) (xy 112.649 103.759))
    (stroke (width 0) (type default) (color 0 0 0 0))
    (uuid e2f5ac73-dafb-413e-928a-94cb2e850726)
  )
  (wire (pts (xy 130.937 56.515) (xy 134.747 56.515))
    (stroke (width 0) (type default) (color 0 0 0 0))
    (uuid ebc5648b-1b48-45e3-abdf-5d16be79122e)
  )
  (wire (pts (xy 158.115 91.313) (xy 166.751 91.313))
    (stroke (width 0) (type default) (color 0 0 0 0))
    (uuid ef338fa8-0089-4717-a044-53a631b196ca)
  )
  (wire (pts (xy 119.253 41.783) (xy 125.857 41.783))
    (stroke (width 0) (type default) (color 0 0 0 0))
    (uuid f297c95d-d526-45d5-8df3-33ae870c43cf)
  )
  (wire (pts (xy 112.649 91.313) (xy 114.681 91.313))
    (stroke (width 0) (type default) (color 0 0 0 0))
    (uuid f5b665f0-d4af-4c6f-97bd-185f6404152d)
  )
  (wire (pts (xy 66.929 66.294) (xy 52.324 66.294))
    (stroke (width 0) (type default) (color 0 0 0 0))
    (uuid f96b1cf9-e791-4080-95d0-97a5ca590834)
  )
  (wire (pts (xy 52.324 66.294) (xy 52.324 68.834))
    (stroke (width 0) (type default) (color 0 0 0 0))
    (uuid fabc9cb1-9dc0-4086-9985-8cfc6d204bb4)
  )

  (text "Power Subsystem" (at 135.509 35.433 0)
    (effects (font (size 1.27 1.27)) (justify left bottom))
    (uuid 4761a2ae-eace-4ded-88af-f8bc4046d5e7)
  )

  (global_label "UnderVoltageOutput" (shape input) (at 105.029 91.313 180) (fields_autoplaced)
    (effects (font (size 1.27 1.27)) (justify right))
    (uuid 07a71a2e-4c71-4d9c-a584-36d03dbc8bb7)
    (property "Intersheet References" "${INTERSHEET_REFS}" (id 0) (at 83.8683 91.3924 0)
      (effects (font (size 1.27 1.27)) (justify right) hide)
    )
  )
  (global_label "VBUS" (shape input) (at 52.324 47.244 90) (fields_autoplaced)
    (effects (font (size 1.27 1.27)) (justify left))
    (uuid c887e0b2-8719-4175-8374-c0b0a1ec53a0)
    (property "Intersheet References" "${INTERSHEET_REFS}" (id 0) (at 52.2446 39.9323 90)
      (effects (font (size 1.27 1.27)) (justify left) hide)
    )
  )
  (global_label "UnderVoltageOutput" (shape input) (at 146.177 56.515 0) (fields_autoplaced)
    (effects (font (size 1.27 1.27)) (justify left))
    (uuid f950e71e-48fd-484b-a67a-14a31dc30255)
    (property "Intersheet References" "${INTERSHEET_REFS}" (id 0) (at 167.3377 56.4356 0)
      (effects (font (size 1.27 1.27)) (justify left) hide)
    )
  )
  (global_label "VBUS" (shape input) (at 116.205 41.783 180) (fields_autoplaced)
    (effects (font (size 1.27 1.27)) (justify right))
    (uuid fdb9bc3f-86d7-42a0-9213-a0ac1ada5eea)
    (property "Intersheet References" "${INTERSHEET_REFS}" (id 0) (at 108.8933 41.8624 0)
      (effects (font (size 1.27 1.27)) (justify right) hide)
    )
  )

  (symbol (lib_id "power:GND") (at 119.253 49.657 0) (unit 1)
    (in_bom yes) (on_board yes) (fields_autoplaced)
    (uuid 02994b2e-8318-4c20-b688-ee9428139320)
    (property "Reference" "#PWR019" (id 0) (at 119.253 56.007 0)
      (effects (font (size 1.27 1.27)) hide)
    )
    (property "Value" "GND" (id 1) (at 119.253 54.737 0))
    (property "Footprint" "" (id 2) (at 119.253 49.657 0)
      (effects (font (size 1.27 1.27)) hide)
    )
    (property "Datasheet" "" (id 3) (at 119.253 49.657 0)
      (effects (font (size 1.27 1.27)) hide)
    )
    (pin "1" (uuid 6a6f9c95-7d78-4642-9ca4-718fad74cb01))
  )

  (symbol (lib_id "power:GND") (at 112.649 103.759 0) (unit 1)
    (in_bom yes) (on_board yes)
    (uuid 06f36666-4084-4e79-aa17-f69b4ddc89fd)
    (property "Reference" "#PWR018" (id 0) (at 112.649 110.109 0)
      (effects (font (size 1.27 1.27)) hide)
    )
    (property "Value" "GND" (id 1) (at 112.776 108.1532 0))
    (property "Footprint" "" (id 2) (at 112.649 103.759 0)
      (effects (font (size 1.27 1.27)) hide)
    )
    (property "Datasheet" "" (id 3) (at 112.649 103.759 0)
      (effects (font (size 1.27 1.27)) hide)
    )
    (pin "1" (uuid d89abfe5-952a-4c10-abd7-c4b5c74a6c2f))
  )

  (symbol (lib_id "Device:Q_PMOS_GDS") (at 125.857 53.975 270) (unit 1)
    (in_bom yes) (on_board yes) (fields_autoplaced)
    (uuid 11e84562-4168-4539-b124-fa62cefd6023)
    (property "Reference" "Q1" (id 0) (at 125.857 61.341 90))
    (property "Value" "Q_PMOS_GDS" (id 1) (at 125.857 63.881 90))
    (property "Footprint" "Package_TO_SOT_SMD:SOT-23" (id 2) (at 128.397 59.055 0)
      (effects (font (size 1.27 1.27)) hide)
    )
    (property "Datasheet" "~" (id 3) (at 125.857 53.975 0)
      (effects (font (size 1.27 1.27)) hide)
    )
    (pin "1" (uuid 102f5c6f-1ce4-41c9-b410-3a5a3238a770))
    (pin "2" (uuid 06dbd117-aebc-4491-a13b-7d3eb0a4c1a6))
    (pin "3" (uuid 2f643ad8-1c52-45fb-bf74-1748a353b897))
  )

  (symbol (lib_id "Device:D_Zener") (at 170.561 91.313 180) (unit 1)
    (in_bom yes) (on_board yes) (fields_autoplaced)
    (uuid 211dfd37-e33e-470c-b1a8-653f93495a72)
    (property "Reference" "D7" (id 0) (at 170.561 84.709 0))
    (property "Value" "D_Zener" (id 1) (at 170.561 87.249 0))
    (property "Footprint" "Diode_SMD:D_SOD-123" (id 2) (at 170.561 91.313 0)
      (effects (font (size 1.27 1.27)) hide)
    )
    (property "Datasheet" "~" (id 3) (at 170.561 91.313 0)
      (effects (font (size 1.27 1.27)) hide)
    )
    (property "JLCPCB partname" "C151452" (id 4) (at 170.561 91.313 0)
      (effects (font (size 1.27 1.27)) hide)
    )
    (pin "1" (uuid 11796f6f-c5b2-4a64-a5e4-9f22ba4d3f89))
    (pin "2" (uuid c775cd49-85d8-4c02-8945-762059d94922))
  )

  (symbol (lib_id "Connector:TestPoint") (at 134.747 56.515 0) (unit 1)
    (in_bom yes) (on_board yes)
    (uuid 23617da8-e755-4fe0-920c-2b731b2d7ca8)
    (property "Reference" "TP1" (id 0) (at 140.081 53.213 90))
    (property "Value" "TestPoint" (id 1) (at 137.541 49.911 90))
    (property "Footprint" "TestPoint:TestPoint_Bridge_Pitch2.0mm_Drill0.7mm" (id 2) (at 139.827 56.515 0)
      (effects (font (size 1.27 1.27)) hide)
    )
    (property "Datasheet" "~" (id 3) (at 139.827 56.515 0)
      (effects (font (size 1.27 1.27)) hide)
    )
    (pin "1" (uuid 12168ea5-9ab8-4112-80ac-b7ef10657b4f))
  )

  (symbol (lib_id "power:VCC") (at 80.264 49.149 0) (unit 1)
    (in_bom yes) (on_board yes)
    (uuid 2d7ed9ee-4dd9-4754-93d1-314c35e1d9e2)
    (property "Reference" "#PWR015" (id 0) (at 80.264 52.959 0)
      (effects (font (size 1.27 1.27)) hide)
    )
    (property "Value" "VCC" (id 1) (at 75.946 46.863 0))
    (property "Footprint" "" (id 2) (at 80.264 49.149 0)
      (effects (font (size 1.27 1.27)) hide)
    )
    (property "Datasheet" "" (id 3) (at 80.264 49.149 0)
      (effects (font (size 1.27 1.27)) hide)
    )
    (pin "1" (uuid e47a4644-2ae1-4ead-b07f-c9d4f37cbb8f))
  )

  (symbol (lib_id "Regulator_Linear:LM1117-3.3") (at 127.127 91.313 0) (unit 1)
    (in_bom yes) (on_board yes)
    (uuid 3d8f703c-974f-4a3d-8be3-dfb51f047ea1)
    (property "Reference" "U3" (id 0) (at 127.127 85.1662 0))
    (property "Value" "LM1117-3.3" (id 1) (at 127.127 87.4776 0))
    (property "Footprint" "Package_TO_SOT_SMD:SOT-223-3_TabPin2" (id 2) (at 127.127 91.313 0)
      (effects (font (size 1.27 1.27)) hide)
    )
    (property "Datasheet" "http://www.ti.com/lit/ds/symlink/lm1117.pdf" (id 3) (at 127.127 91.313 0)
      (effects (font (size 1.27 1.27)) hide)
    )
    (property "JLCPCB partname" "C508706" (id 4) (at 127.127 91.313 0)
      (effects (font (size 1.27 1.27)) hide)
    )
    (property "Cost" "$0.1445" (id 5) (at 127.127 91.313 0)
      (effects (font (size 1.27 1.27)) hide)
    )
    (pin "1" (uuid 6e035873-ce79-49bc-9512-2761f234602f))
    (pin "2" (uuid adc07a0d-20d0-401e-9139-c0df1171be5e))
    (pin "3" (uuid f6a95196-8c16-41ec-bbc8-c10bf185f315))
  )

  (symbol (lib_id "power:GND") (at 80.264 66.294 0) (unit 1)
    (in_bom yes) (on_board yes) (fields_autoplaced)
    (uuid 484b5dcd-a371-4568-b6e2-0bf747f30fdf)
    (property "Reference" "#PWR016" (id 0) (at 80.264 72.644 0)
      (effects (font (size 1.27 1.27)) hide)
    )
    (property "Value" "GND" (id 1) (at 80.264 71.374 0))
    (property "Footprint" "" (id 2) (at 80.264 66.294 0)
      (effects (font (size 1.27 1.27)) hide)
    )
    (property "Datasheet" "" (id 3) (at 80.264 66.294 0)
      (effects (font (size 1.27 1.27)) hide)
    )
    (pin "1" (uuid dfb29e30-9510-42a4-9f5f-722d97e9ef8c))
  )

  (symbol (lib_id "Device:C_Small") (at 66.929 59.944 0) (unit 1)
    (in_bom yes) (on_board yes)
    (uuid 4cf9d38b-c8b4-4933-a129-e7c4d94b463b)
    (property "Reference" "C3" (id 0) (at 62.865 57.912 0)
      (effects (font (size 1.27 1.27)) (justify left))
    )
    (property "Value" "0.1uF" (id 1) (at 59.817 60.198 0)
      (effects (font (size 1.27 1.27)) (justify left))
    )
    (property "Footprint" "Capacitor_SMD:C_0201_0603Metric" (id 2) (at 66.929 59.944 0)
      (effects (font (size 1.27 1.27)) hide)
    )
    (property "Datasheet" "~" (id 3) (at 66.929 59.944 0)
      (effects (font (size 1.27 1.27)) hide)
    )
    (pin "1" (uuid 0535edc6-1e3a-4c82-8615-41863dde5c6f))
    (pin "2" (uuid 0863ca7e-8161-42dc-a413-3e719cc0b0ce))
  )

  (symbol (lib_id "power:GND") (at 52.324 68.834 0) (unit 1)
    (in_bom yes) (on_board yes) (fields_autoplaced)
    (uuid 60afbd7b-6e98-4880-91f4-438b50ba7ad2)
    (property "Reference" "#PWR014" (id 0) (at 52.324 75.184 0)
      (effects (font (size 1.27 1.27)) hide)
    )
    (property "Value" "GND" (id 1) (at 52.324 73.66 0))
    (property "Footprint" "" (id 2) (at 52.324 68.834 0)
      (effects (font (size 1.27 1.27)) hide)
    )
    (property "Datasheet" "" (id 3) (at 52.324 68.834 0)
      (effects (font (size 1.27 1.27)) hide)
    )
    (pin "1" (uuid 065c8596-2b89-438b-b2ee-4e1530c773e0))
  )

  (symbol (lib_id "power:GND") (at 127.127 101.473 0) (unit 1)
    (in_bom yes) (on_board yes)
    (uuid 664c8a73-9b8c-4921-a987-9cd36e955b45)
    (property "Reference" "#PWR020" (id 0) (at 127.127 107.823 0)
      (effects (font (size 1.27 1.27)) hide)
    )
    (property "Value" "GND" (id 1) (at 127.254 105.8672 0))
    (property "Footprint" "" (id 2) (at 127.127 101.473 0)
      (effects (font (size 1.27 1.27)) hide)
    )
    (property "Datasheet" "" (id 3) (at 127.127 101.473 0)
      (effects (font (size 1.27 1.27)) hide)
    )
    (pin "1" (uuid e8d85600-1988-42a1-a3db-f0ee48fa10f8))
  )

  (symbol (lib_id "power:GND") (at 152.527 101.219 0) (unit 1)
    (in_bom yes) (on_board yes)
    (uuid 6bddc5e2-b7d9-4ef0-b998-9623cd0a1168)
    (property "Reference" "#PWR021" (id 0) (at 152.527 107.569 0)
      (effects (font (size 1.27 1.27)) hide)
    )
    (property "Value" "GND" (id 1) (at 152.654 105.6132 0))
    (property "Footprint" "" (id 2) (at 152.527 101.219 0)
      (effects (font (size 1.27 1.27)) hide)
    )
    (property "Datasheet" "" (id 3) (at 152.527 101.219 0)
      (effects (font (size 1.27 1.27)) hide)
    )
    (pin "1" (uuid 7e64c972-703f-4b21-a4a5-ea45090605c3))
  )

  (symbol (lib_id "Device:R_Small_US") (at 119.253 45.593 0) (unit 1)
    (in_bom yes) (on_board yes)
    (uuid 77452531-990f-4da5-bd0d-6cc1525500ac)
    (property "Reference" "R8" (id 0) (at 118.237 36.703 0)
      (effects (font (size 1.27 1.27)) (justify left))
    )
    (property "Value" "2k" (id 1) (at 118.745 39.497 0)
      (effects (font (size 1.27 1.27)) (justify left))
    )
    (property "Footprint" "Resistor_SMD:R_0201_0603Metric" (id 2) (at 119.253 45.593 0)
      (effects (font (size 1.27 1.27)) hide)
    )
    (property "Datasheet" "~" (id 3) (at 119.253 45.593 0)
      (effects (font (size 1.27 1.27)) hide)
    )
    (property "JLCPCB partname" "C22765" (id 4) (at 119.253 45.593 0)
      (effects (font (size 1.27 1.27)) hide)
    )
    (pin "1" (uuid 444e5d42-4599-4fe6-9767-de56e5dee691))
    (pin "2" (uuid 87e986de-a910-4b3e-a73d-e8ed9ffeaed5))
  )

  (symbol (lib_id "power:PWR_FLAG") (at 114.681 91.313 0) (unit 1)
    (in_bom yes) (on_board yes) (fields_autoplaced)
    (uuid 77e084af-0877-4a98-9f23-d6e3228c4fdd)
    (property "Reference" "#FLG02" (id 0) (at 114.681 89.408 0)
      (effects (font (size 1.27 1.27)) hide)
    )
    (property "Value" "PWR_FLAG" (id 1) (at 114.681 85.979 0))
    (property "Footprint" "" (id 2) (at 114.681 91.313 0)
      (effects (font (size 1.27 1.27)) hide)
    )
    (property "Datasheet" "~" (id 3) (at 114.681 91.313 0)
      (effects (font (size 1.27 1.27)) hide)
    )
    (pin "1" (uuid 10a5385c-08cb-468b-b55d-8dd55dd06e8a))
  )

  (symbol (lib_id "power:VCC") (at 110.109 56.515 0) (unit 1)
    (in_bom yes) (on_board yes)
    (uuid 81af6a30-e342-4039-9aa1-86b129106b65)
    (property "Reference" "#PWR017" (id 0) (at 110.109 60.325 0)
      (effects (font (size 1.27 1.27)) hide)
    )
    (property "Value" "VCC" (id 1) (at 105.791 54.229 0))
    (property "Footprint" "" (id 2) (at 110.109 56.515 0)
      (effects (font (size 1.27 1.27)) hide)
    )
    (property "Datasheet" "" (id 3) (at 110.109 56.515 0)
      (effects (font (size 1.27 1.27)) hide)
    )
    (pin "1" (uuid 2f3efa35-c3e1-45a2-83bc-04184a4ef9cc))
  )

  (symbol (lib_id "Connector:TestPoint") (at 158.115 91.313 0) (unit 1)
    (in_bom yes) (on_board yes)
    (uuid a273ee6d-a104-4847-8975-8bf238dbc4d8)
    (property "Reference" "TP2" (id 0) (at 163.449 88.011 90))
    (property "Value" "TestPoint" (id 1) (at 160.909 84.709 90))
    (property "Footprint" "TestPoint:TestPoint_Bridge_Pitch2.0mm_Drill0.7mm" (id 2) (at 163.195 91.313 0)
      (effects (font (size 1.27 1.27)) hide)
    )
    (property "Datasheet" "~" (id 3) (at 163.195 91.313 0)
      (effects (font (size 1.27 1.27)) hide)
    )
    (pin "1" (uuid 5ecd3227-92f3-47d6-81f8-d96001b85f36))
  )

  (symbol (lib_id "Battery_Management:MCP73831-2-OT") (at 52.324 54.864 0) (unit 1)
    (in_bom yes) (on_board yes) (fields_autoplaced)
    (uuid a3247184-f68b-4093-bb7a-eab185a3cd9d)
    (property "Reference" "U2" (id 0) (at 54.3434 44.196 0)
      (effects (font (size 1.27 1.27)) (justify left))
    )
    (property "Value" "MCP73831-2-OT" (id 1) (at 54.3434 46.736 0)
      (effects (font (size 1.27 1.27)) (justify left))
    )
    (property "Footprint" "Package_TO_SOT_SMD:SOT-23-5" (id 2) (at 53.594 61.214 0)
      (effects (font (size 1.27 1.27) italic) (justify left) hide)
    )
    (property "Datasheet" "http://ww1.microchip.com/downloads/en/DeviceDoc/20001984g.pdf" (id 3) (at 48.514 56.134 0)
      (effects (font (size 1.27 1.27)) hide)
    )
    (property "JLCPCB partname" "C424093" (id 4) (at 52.324 54.864 0)
      (effects (font (size 1.27 1.27)) hide)
    )
    (pin "1" (uuid 43c007f0-1eb5-4249-981c-6513966fb483))
    (pin "2" (uuid e07083c5-2af3-499d-90c3-b60d50fb4da5))
    (pin "3" (uuid bff5f457-2cc3-40a9-ac47-680c066b4faf))
    (pin "4" (uuid a7f18a9f-a0be-43eb-b2f0-7c83b416fe20))
    (pin "5" (uuid 9fdbf270-09a8-4aae-819a-16497aefd6c3))
  )

  (symbol (lib_id "Device:R_Small_US") (at 39.624 61.849 0) (unit 1)
    (in_bom yes) (on_board yes)
    (uuid aa13b47b-6d22-47f8-b637-09ce86c078ea)
    (property "Reference" "R7" (id 0) (at 35.306 57.785 0)
      (effects (font (size 1.27 1.27)) (justify left))
    )
    (property "Value" "5k" (id 1) (at 35.052 61.087 0)
      (effects (font (size 1.27 1.27)) (justify left))
    )
    (property "Footprint" "Resistor_SMD:R_0201_0603Metric" (id 2) (at 39.624 61.849 0)
      (effects (font (size 1.27 1.27)) hide)
    )
    (property "Datasheet" "~" (id 3) (at 39.624 61.849 0)
      (effects (font (size 1.27 1.27)) hide)
    )
    (pin "1" (uuid fb2bcbc4-0143-44e7-9bd8-0e0aea63c8ac))
    (pin "2" (uuid 62af5a18-21ad-417e-99e0-4b7fcd2863e1))
  )

  (symbol (lib_id "Device:C_Small") (at 112.649 97.155 0) (unit 1)
    (in_bom yes) (on_board yes) (fields_autoplaced)
    (uuid b7ae69ff-1864-495f-8d8f-fcbb2d70fbdb)
    (property "Reference" "C4" (id 0) (at 115.189 95.8912 0)
      (effects (font (size 1.27 1.27)) (justify left))
    )
    (property "Value" "10uF" (id 1) (at 115.189 98.4312 0)
      (effects (font (size 1.27 1.27)) (justify left))
    )
    (property "Footprint" "Capacitor_SMD:C_1206_3216Metric" (id 2) (at 112.649 97.155 0)
      (effects (font (size 1.27 1.27)) hide)
    )
    (property "Datasheet" "~" (id 3) (at 112.649 97.155 0)
      (effects (font (size 1.27 1.27)) hide)
    )
    (property "JLCPCB" "C13585" (id 4) (at 112.649 97.155 0)
      (effects (font (size 1.27 1.27)) hide)
    )
    (pin "1" (uuid 4075c59f-4a08-4098-84d7-869cbd01bcf1))
    (pin "2" (uuid c10ca692-b6c0-4ed0-9637-c68f8ec8190f))
  )

  (symbol (lib_id "Device:C_Small") (at 152.527 96.647 0) (unit 1)
    (in_bom yes) (on_board yes) (fields_autoplaced)
    (uuid ba7f3f5f-62c7-45c0-891d-0a4b7bd0277b)
    (property "Reference" "C5" (id 0) (at 155.829 95.3832 0)
      (effects (font (size 1.27 1.27)) (justify left))
    )
    (property "Value" "100uF" (id 1) (at 155.829 97.9232 0)
      (effects (font (size 1.27 1.27)) (justify left))
    )
    (property "Footprint" "Capacitor_SMD:C_1206_3216Metric" (id 2) (at 152.527 96.647 0)
      (effects (font (size 1.27 1.27)) hide)
    )
    (property "Datasheet" "~" (id 3) (at 152.527 96.647 0)
      (effects (font (size 1.27 1.27)) hide)
    )
    (property "JLCPCB partname" "C15008" (id 4) (at 152.527 96.647 0)
      (effects (font (size 1.27 1.27)) hide)
    )
    (pin "1" (uuid 53d7f7a6-afd0-4267-8208-86036defbf0d))
    (pin "2" (uuid db881d36-3c8e-4335-85df-84c38fe30351))
  )

  (symbol (lib_id "power:+3V3") (at 178.943 91.313 0) (unit 1)
    (in_bom yes) (on_board yes) (fields_autoplaced)
    (uuid d6cd2bad-5f4e-4477-965b-8de5ecbe02dc)
    (property "Reference" "#PWR022" (id 0) (at 178.943 95.123 0)
      (effects (font (size 1.27 1.27)) hide)
    )
    (property "Value" "+3V3" (id 1) (at 178.943 85.979 0))
    (property "Footprint" "" (id 2) (at 178.943 91.313 0)
      (effects (font (size 1.27 1.27)) hide)
    )
    (property "Datasheet" "" (id 3) (at 178.943 91.313 0)
      (effects (font (size 1.27 1.27)) hide)
    )
    (pin "1" (uuid 949b5533-b015-4e53-b850-0542040de0a0))
  )

  (symbol (lib_id "power:GND") (at 39.624 68.834 0) (unit 1)
    (in_bom yes) (on_board yes) (fields_autoplaced)
    (uuid ea6d98d5-9bfc-48ff-b210-54fb2a25bc7c)
    (property "Reference" "#PWR013" (id 0) (at 39.624 75.184 0)
      (effects (font (size 1.27 1.27)) hide)
    )
    (property "Value" "GND" (id 1) (at 39.624 73.66 0))
    (property "Footprint" "" (id 2) (at 39.624 68.834 0)
      (effects (font (size 1.27 1.27)) hide)
    )
    (property "Datasheet" "" (id 3) (at 39.624 68.834 0)
      (effects (font (size 1.27 1.27)) hide)
    )
    (pin "1" (uuid 633f75c5-3e59-4c5c-acaa-7b07045091db))
  )

  (symbol (lib_id "Device:Battery_Cell") (at 80.264 58.674 0) (unit 1)
    (in_bom yes) (on_board yes) (fields_autoplaced)
    (uuid f8b14e8b-0a21-4ced-8e61-fa05bbd50d9c)
    (property "Reference" "BT1" (id 0) (at 83.439 55.3719 0)
      (effects (font (size 1.27 1.27)) (justify left))
    )
    (property "Value" "Battery_Cell" (id 1) (at 83.439 57.9119 0)
      (effects (font (size 1.27 1.27)) (justify left))
    )
    (property "Footprint" "Battery:BatteryHolder_Keystone_1042_1x18650" (id 2) (at 80.264 57.15 90)
      (effects (font (size 1.27 1.27)) hide)
    )
    (property "Datasheet" "~" (id 3) (at 80.264 57.15 90)
      (effects (font (size 1.27 1.27)) hide)
    )
    (pin "1" (uuid bc82e578-14e1-4011-a086-9d9afcdd5aa3))
    (pin "2" (uuid bb27f4a5-797a-4556-a6e3-9cfade4cd0cc))
  )
)
