%TF.GenerationSoftware,KiCad,Pcbnew,(6.0.2)*%
%TF.CreationDate,2022-03-20T22:22:57+02:00*%
%TF.ProjectId,final,66696e61-6c2e-46b6-9963-61645f706362,v1.00*%
%TF.SameCoordinates,Original*%
%TF.FileFunction,Paste,Top*%
%TF.FilePolarity,Positive*%
%FSLAX46Y46*%
G04 Gerber Fmt 4.6, Leading zero omitted, Abs format (unit mm)*
G04 Created by KiCad (PCBNEW (6.0.2)) date 2022-03-20 22:22:57*
%MOMM*%
%LPD*%
G01*
G04 APERTURE LIST*
G04 Aperture macros list*
%AMRoundRect*
0 Rectangle with rounded corners*
0 $1 Rounding radius*
0 $2 $3 $4 $5 $6 $7 $8 $9 X,Y pos of 4 corners*
0 Add a 4 corners polygon primitive as box body*
4,1,4,$2,$3,$4,$5,$6,$7,$8,$9,$2,$3,0*
0 Add four circle primitives for the rounded corners*
1,1,$1+$1,$2,$3*
1,1,$1+$1,$4,$5*
1,1,$1+$1,$6,$7*
1,1,$1+$1,$8,$9*
0 Add four rect primitives between the rounded corners*
20,1,$1+$1,$2,$3,$4,$5,0*
20,1,$1+$1,$4,$5,$6,$7,0*
20,1,$1+$1,$6,$7,$8,$9,0*
20,1,$1+$1,$8,$9,$2,$3,0*%
G04 Aperture macros list end*
%ADD10RoundRect,0.079500X-0.079500X-0.100500X0.079500X-0.100500X0.079500X0.100500X-0.079500X0.100500X0*%
%ADD11RoundRect,0.079500X0.100500X-0.079500X0.100500X0.079500X-0.100500X0.079500X-0.100500X-0.079500X0*%
%ADD12RoundRect,0.075000X-0.250000X-0.075000X0.250000X-0.075000X0.250000X0.075000X-0.250000X0.075000X0*%
%ADD13RoundRect,0.250000X-0.325000X-0.650000X0.325000X-0.650000X0.325000X0.650000X-0.325000X0.650000X0*%
%ADD14RoundRect,0.150000X0.512500X0.150000X-0.512500X0.150000X-0.512500X-0.150000X0.512500X-0.150000X0*%
%ADD15RoundRect,0.079500X-0.100500X0.079500X-0.100500X-0.079500X0.100500X-0.079500X0.100500X0.079500X0*%
%ADD16R,2.160000X1.120000*%
%ADD17R,0.300000X0.850000*%
%ADD18R,0.400000X1.350000*%
%ADD19R,2.900000X1.900000*%
%ADD20RoundRect,0.250000X-0.275000X-0.275000X0.275000X-0.275000X0.275000X0.275000X-0.275000X0.275000X0*%
%ADD21RoundRect,0.062500X-0.350000X-0.062500X0.350000X-0.062500X0.350000X0.062500X-0.350000X0.062500X0*%
%ADD22RoundRect,0.062500X-0.062500X-0.350000X0.062500X-0.350000X0.062500X0.350000X-0.062500X0.350000X0*%
%ADD23R,1.500000X2.000000*%
%ADD24R,3.800000X2.000000*%
%ADD25R,2.750000X3.050000*%
%ADD26R,1.200000X2.200000*%
%ADD27RoundRect,0.250000X0.325000X0.650000X-0.325000X0.650000X-0.325000X-0.650000X0.325000X-0.650000X0*%
%ADD28RoundRect,0.079500X0.079500X0.100500X-0.079500X0.100500X-0.079500X-0.100500X0.079500X-0.100500X0*%
%ADD29RoundRect,0.100000X-0.100000X0.637500X-0.100000X-0.637500X0.100000X-0.637500X0.100000X0.637500X0*%
%ADD30R,3.050000X2.750000*%
%ADD31R,2.200000X1.200000*%
G04 APERTURE END LIST*
D10*
%TO.C,R15*%
X114247000Y-134692000D03*
X113557000Y-134692000D03*
%TD*%
D11*
%TO.C,D5*%
X159622000Y-127834000D03*
X159622000Y-127144000D03*
%TD*%
D10*
%TO.C,D4*%
X136599000Y-129104000D03*
X135909000Y-129104000D03*
%TD*%
D12*
%TO.C,U2*%
X112748000Y-130486000D03*
X112748000Y-131136000D03*
X112748000Y-131786000D03*
X114548000Y-131786000D03*
X114548000Y-131136000D03*
X114548000Y-130486000D03*
%TD*%
D13*
%TO.C,C8*%
X139146000Y-129358000D03*
X142096000Y-129358000D03*
%TD*%
D10*
%TO.C,C5*%
X110509000Y-133168000D03*
X111199000Y-133168000D03*
%TD*%
D14*
%TO.C,U4*%
X167496000Y-126752000D03*
X167496000Y-125802000D03*
X167496000Y-124852000D03*
X165221000Y-124852000D03*
X165221000Y-126752000D03*
%TD*%
D15*
%TO.C,D1*%
X142858000Y-101164000D03*
X142858000Y-101854000D03*
%TD*%
%TO.C,C7*%
X170422500Y-125385000D03*
X170422500Y-124695000D03*
%TD*%
D16*
%TO.C,SW3*%
X137587000Y-100402000D03*
X130857000Y-100402000D03*
%TD*%
D15*
%TO.C,R10*%
X153780000Y-109963000D03*
X153780000Y-110653000D03*
%TD*%
D11*
%TO.C,R9*%
X153780000Y-112503000D03*
X153780000Y-113193000D03*
%TD*%
D17*
%TO.C,J1*%
X123498000Y-139496000D03*
X130498000Y-139496000D03*
D18*
X128298000Y-136821000D03*
X127648000Y-136821000D03*
X126998000Y-136821000D03*
X126348000Y-136821000D03*
X125698000Y-136821000D03*
D19*
X126998000Y-139496000D03*
%TD*%
D10*
%TO.C,R8*%
X168095000Y-129358000D03*
X167405000Y-129358000D03*
%TD*%
%TO.C,R2*%
X142949000Y-104466000D03*
X142259000Y-104466000D03*
%TD*%
D20*
%TO.C,U1*%
X124712000Y-131278000D03*
X124712000Y-129978000D03*
X123412000Y-131278000D03*
X123412000Y-129978000D03*
D21*
X122124500Y-129378000D03*
X122124500Y-129878000D03*
X122124500Y-130378000D03*
X122124500Y-130878000D03*
X122124500Y-131378000D03*
X122124500Y-131878000D03*
D22*
X122812000Y-132565500D03*
X123312000Y-132565500D03*
X123812000Y-132565500D03*
X124312000Y-132565500D03*
X124812000Y-132565500D03*
X125312000Y-132565500D03*
D21*
X125999500Y-131878000D03*
X125999500Y-131378000D03*
X125999500Y-130878000D03*
X125999500Y-130378000D03*
X125999500Y-129878000D03*
X125999500Y-129378000D03*
D22*
X125312000Y-128690500D03*
X124812000Y-128690500D03*
X124312000Y-128690500D03*
X123812000Y-128690500D03*
X123312000Y-128690500D03*
X122812000Y-128690500D03*
%TD*%
D10*
%TO.C,R14*%
X157662000Y-131390000D03*
X158352000Y-131390000D03*
%TD*%
D23*
%TO.C,U5*%
X136748000Y-139112000D03*
X139048000Y-139112000D03*
D24*
X139048000Y-132812000D03*
D23*
X141348000Y-139112000D03*
%TD*%
D25*
%TO.C,Q1*%
X148953000Y-117709000D03*
X152003000Y-117709000D03*
X148953000Y-121059000D03*
X152003000Y-121059000D03*
D26*
X148198000Y-125684000D03*
X152758000Y-125684000D03*
%TD*%
D27*
%TO.C,C6*%
X147176000Y-140788000D03*
X144226000Y-140788000D03*
%TD*%
D15*
%TO.C,D3*%
X120252000Y-138919000D03*
X120252000Y-139609000D03*
%TD*%
D10*
%TO.C,D1*%
X149045000Y-106244000D03*
X148355000Y-106244000D03*
%TD*%
D28*
%TO.C,R11*%
X134567000Y-142058000D03*
X133877000Y-142058000D03*
%TD*%
D10*
%TO.C,D2*%
X114573000Y-110308000D03*
X115263000Y-110308000D03*
%TD*%
%TO.C,R13*%
X166684500Y-123008000D03*
X167374500Y-123008000D03*
%TD*%
D29*
%TO.C,U3*%
X136467000Y-114303500D03*
X135817000Y-114303500D03*
X135167000Y-114303500D03*
X134517000Y-114303500D03*
X134517000Y-120028500D03*
X135167000Y-120028500D03*
X135817000Y-120028500D03*
X136467000Y-120028500D03*
%TD*%
D15*
%TO.C,C4*%
X119490000Y-132315000D03*
X119490000Y-133005000D03*
%TD*%
%TO.C,C9*%
X138794000Y-119615000D03*
X138794000Y-120305000D03*
%TD*%
D11*
%TO.C,R7*%
X120252000Y-141895000D03*
X120252000Y-141205000D03*
%TD*%
%TO.C,C3*%
X128126000Y-129775000D03*
X128126000Y-130465000D03*
%TD*%
D10*
%TO.C,C2*%
X110945000Y-130628000D03*
X110255000Y-130628000D03*
%TD*%
D30*
%TO.C,Q2*%
X150395000Y-135201000D03*
X153745000Y-135201000D03*
X150395000Y-132151000D03*
X153745000Y-132151000D03*
D31*
X145770000Y-131396000D03*
X145770000Y-135956000D03*
%TD*%
D11*
%TO.C,C1*%
X128126000Y-132751000D03*
X128126000Y-132061000D03*
%TD*%
%TO.C,R3*%
X159622000Y-100819000D03*
X159622000Y-101509000D03*
%TD*%
D10*
%TO.C,R6*%
X112033000Y-110308000D03*
X112723000Y-110308000D03*
%TD*%
%TO.C,R16*%
X112541000Y-127072000D03*
X113231000Y-127072000D03*
%TD*%
%TO.C,R12*%
X139139000Y-142312000D03*
X138449000Y-142312000D03*
%TD*%
D16*
%TO.C,SW1*%
X130983000Y-108022000D03*
X124253000Y-108022000D03*
%TD*%
%TO.C,SW2*%
X102409000Y-109038000D03*
X109139000Y-109038000D03*
%TD*%
M02*
